Fit the marginal mean model for generalize outcomes. — fit_SensIAT_marginal_mean_model_generalized • SensIAT
…
#> 568                   -0.052588465             12  197
#> 569                   -0.270955044            253  198
#> 570                   -0.298481066            120  198
#> 571                   -0.338552866              9  198
#> 572                   -0.278622851             47  198
#> 573                   -0.309066551            310  199
#> 574                   -0.349171274             84  199
#> 575                   -0.168878788            102  199
#> 576                    0.425252231             47  200
#> 577                   -0.346754674            163  200
#> 578                   -0.168878788             47  200
#> 579                   -0.153547346            139  200
#> 
#> $data
#> # A tibble: 579 × 7
#> # Groups:   Subject_ID [189]
#>    Subject_ID Visit  Time Outcome ..prev_outcome.. ..prev_time.. ..delta_time..
#>         <int> <dbl> <dbl>   <dbl>            <dbl>         <dbl>          <dbl>
#>  1          1     1   214   4.5              3                 0            214
#>  2          1     2   292   4.17             4.5             214             78
#>  3          1     3   370   1.33             4.17            292             78
#>  4          1     4   441   0.833            1.33            370             71
#>  5          2     1    72   0.5              3                 0             72
#>  6          2     2   181   2                0.5              72            109
#>  7          2     3   297   1.5              2               181            116
#>  8          2     4   366   1.83             1.5             297             69
#>  9          3     1   214   0.167            0.667             0            214
#> 10          3     2   496   0.333            0.167           214            282
#> # ℹ 569 more rows
…
#>                    "numeric"                  "nmatrix.3" 
#>               ..delta_time..                         (id) 
#>                    "numeric"                    "numeric" 
#> attr(,"id")
#> Subject_ID
#> attr(,"initial")
#>                                        dir1
#> ns(..prev_outcome.., df = 3)1  3.447011e-01
#> ns(..prev_outcome.., df = 3)2 -9.046159e-01
#> ns(..prev_outcome.., df = 3)3  2.507013e-01
#> ..delta_time..                 6.023219e-06
#> 
#> 
#> $data
#> # A tibble: 779 × 7
#> # Groups:   Subject_ID [200]
#>    Subject_ID Visit  Time Outcome ..prev_outcome.. ..prev_time.. ..delta_time..
#>         <int> <dbl> <dbl>   <dbl>            <dbl>         <dbl>          <dbl>
#>  1          1     0     0   3                NA                0             NA
#>  2          1     1   214   4.5               3                0            214
#>  3          1     2   292   4.17              4.5            214             78
#>  4          1     3   370   1.33              4.17           292             78
#>  5          1     4   441   0.833             1.33           370             71
#>  6          2     0     0   3                NA                0             NA
#>  7          2     1    72   0.5               3                0             72
#>  8          2     2   181   2                 0.5             72            109
#>  9          2     3   297   1.5               2              181            116
#> 10          2     4   366   1.83              1.5            297             69
#> # ℹ 769 more rows
#> 
#> $influence
#> $influence[[1]]
#> # A tibble: 200 × 4
#>       id term1     term2     total    
#>    <int> <list>    <list>    <list>   
#>  1     1 <dbl [5]> <dbl [5]> <dbl [5]>
#>  2     2 <dbl [5]> <dbl [5]> <dbl [5]>
#>  3     3 <dbl [5]> <dbl [5]> <dbl [5]>
#>  4     4 <dbl [5]> <dbl [5]> <dbl [5]>
#>  5     5 <dbl [5]> <dbl [5]> <dbl [5]>
#>  6     6 <dbl [5]> <dbl [5]> <dbl [5]>
#>  7     7 <dbl [5]> <dbl [5]> <dbl [5]>
#>  8     8 <dbl [5]> <dbl [5]> <dbl [5]>
#>  9     9 <dbl [5]> <dbl [5]> <dbl [5]>
#> 10    10 <dbl [5]> <dbl [5]> <dbl [5]>
#> # ℹ 190 more rows
…
