…
  - `..prev_outcome..`, i.e. lag-outcome, the outcome from the previous
    visit,

  - `..prev_time..`, i.e. lag-time, the time from the previous visit,

  - `..delta_time..`, the difference in time between the current and
    previous visit.

## Examples

``` r
prepare_SensIAT_data( SensIAT_example_data, Subject_ID, Time, Outcome, 830)
#> # A tibble: 1,000 × 11
#>    ..id.. ..visit_number.. Subject_ID Visit  Time Outcome ..time.. ..outcome..
#>     <int>            <int>      <int> <dbl> <dbl>   <dbl>    <dbl>       <dbl>
#>  1      1                0          1     0     0   3            0       3    
#>  2      1                1          1     1   214   4.5        214       4.5  
#>  3      1                2          1     2   292   4.17       292       4.17 
#>  4      1                3          1     3   370   1.33       370       1.33 
#>  5      1                4          1     4   441   0.833      441       0.833
#>  6      2                0          2     0     0   3            0       3    
#>  7      2                1          2     1    72   0.5         72       0.5  
#>  8      2                2          2     2   181   2          181       2    
#>  9      2                3          2     3   297   1.5        297       1.5  
#> 10      2                4          2     4   366   1.83       366       1.83 
#> # ℹ 990 more rows
#> # ℹ 3 more variables: ..prev_outcome.. <dbl>, ..prev_time.. <dbl>,
#> #   ..delta_time.. <dbl>
…
